…
So this is interesting because most of the most "impactful" tweets haven't been by the people who have used the hashtag the most.

What if we take both things into account?

``` r
tweets %>% 
  group_by(screen_name) %>% 
  summarize(tweets = n(), 
            retweets = sum(retweet_count)) %>% 
  arrange(desc(tweets)) %>% 
  arrange(desc(retweets))
```

    ## # A tibble: 2,098 x 3
    ##    screen_name     tweets retweets
    ##    <chr>            <int>    <int>
    ##  1 usminority           8     2452
    ##  2 SandraTXAS           1     1159
    ##  3 ChuckCallesto        1     1082
    ##  4 Joy_Villa            1      509
    ##  5 GregNorberg          3      463
    ##  6 thatsqueensnark      1      423
    ##  7 Barracuda_Bella      1      388
    ##  8 Unite4Truth          1      378
    ##  9 stripedbanana3       1      284
    ## 10 DonnaWR8            15      270
    ## # ... with 2,088 more rows

Wildly different picture. It seems the top three users here are quite impactful.

What about fave / retween ratio

``` r
tweets %>% 
  select(screen_name, text, retweet_count, favorite_count) %>%  
  mutate(ratio = (favorite_count + 1) / (retweet_count + 1)) %>%  
  arrange(desc(ratio))
```

    ## # A tibble: 4,400 x 5
    ##    screen_name  text                     retweet_count favorite_count ratio
    ##    <chr>        <chr>                            <int>          <int> <dbl>
    ##  1 Speedy62269  @IlhanMN @realDonaldTru~             0             16  17  
    ##  2 DWDrummer13  @dbongino Did you tell ~             1             32  16.5
    ##  3 sargentoart  "@usminority I’m just h~             3             55  14  
    ##  4 AlohaPlay    @lgbtqnation @TuckerCar~             0             13  14  
    ##  5 Darlachic    "@holymtnbike @MrAndyNg~             0             12  13  
    ##  6 AnalizeThis  @seanhannity Think Dems~             0             10  11  
    ##  7 JerForce     @DanRather I’m old enou~             4             51  10.4
    ##  8 GnomeGnuts   @DrShayPhD They did the~             1             16   8.5
    ##  9 JT_Crawdaddy "@StephenKing @warnerth~             0              7   8  
    ## 10 KungFuLife3  @HardTru78495307 @Chuck~             0              7   8  
    ## # ... with 4,390 more rows
…
